%YAML 1.1
%TAG !u! tag:unity3d.com,2011:
--- !u!114 &11400000
MonoBehaviour:
  m_ObjectHideFlags: 0
  m_CorrespondingSourceObject: {fileID: 0}
  m_PrefabInstance: {fileID: 0}
  m_PrefabAsset: {fileID: 0}
  m_GameObject: {fileID: 0}
  m_Enabled: 1
  m_EditorHideFlags: 0
  m_Script: {fileID: 11500000, guid: 026f40974d5f0d24ab25d874bcd6fa9e, type: 3}
  m_Name: ObsidianTop
  m_EditorClassIdentifier: 
  m_Sprite: {fileID: 0}
  m_Color: {r: 1, g: 1, b: 1, a: 1}
  m_Transform:
    e00: 1
    e01: 0
    e02: 0
    e03: 0
    e10: 0
    e11: 1
    e12: 0
    e13: 0
    e20: 0
    e21: 0
    e22: 1
    e23: 0
    e30: 0
    e31: 0
    e32: 0
    e33: 1
  m_InstancedGameObject: {fileID: 0}
  m_Flags: 1
  m_ColliderType: 1
  Prefab: {fileID: 0}
  m_DefaultSprite: {fileID: -8275502208090371910, guid: 1554afcbd4f252048a95321cdb3fe95d,
    type: 3}
  m_DefaultColliderType: 1
  m_TilingRules:
  - m_Neighbors: 0000000000000000000000000000000000000000000000000000000000000000
    m_Sprites:
    - {fileID: 2748741642330457813, guid: 1554afcbd4f252048a95321cdb3fe95d, type: 3}
    - {fileID: 208417841015301324, guid: 1554afcbd4f252048a95321cdb3fe95d, type: 3}
    - {fileID: 5048893225623124600, guid: 1554afcbd4f252048a95321cdb3fe95d, type: 3}
    m_AnimationSpeed: 1
    m_PerlinScale: 0.3
    m_RuleTransform: 0
    m_Output: 1
    m_ColliderType: 1
    m_RandomTransform: 0
